Event,Equipment,Name,BirthDate,Country,BodyweightKg,WeightClassKg,Division,Sex,Bench1Kg,Bench2Kg,Bench3Kg,Bench4Kg,Best3BenchKg,Deadlift1Kg,Deadlift2Kg,Deadlift3Kg,Deadlift4Kg,Best3DeadliftKg,TotalKg,Place
B,Multi-ply,Tahvo Jauhojavri,1961-12-08,Sweden,73.2,75,Open,M,-162.5,-170,170,,170,,,,,,170,1
B,Multi-ply,Maksymilian Lubosik,1998-09-23,Poland,78.8,82.5,Open,M,210,220,230,,230,,,,,,230,1
B,Multi-ply,Mieczysłąw Maczka,1954-09-11,Germany,81.5,82.5,M6,M,100,110,115,,115,,,,,,115,1
B,Multi-ply,Stefan Sochaňski,1948-11-17,Poland,81.1,82.5,M7,M,75,-85,85,,85,,,,,,85,1
B,Multi-ply,Kazimierz Tamiłowski,1948-02-02,Poland,86.3,90,M7,M,145,150,155,,155,,,,,,155,1
B,Multi-ply,Irakli Tskhovrebashvili,,Georgia,92,100,M1,M,-210,-220,-220,,,,,,,,,DQ
B,Multi-ply,Marcel Vasilenko,1979-05-15,Slovenia,96,100,M1,M,170,-180,180,,180,,,,,,180,1
B,Raw,Hayk Afyan,1978-03-20,Armenia,100,100,M2,M,145,150,155,,155,,,,,,155,4
B,Raw,Vladimir Agasaryan,1991-10-09,UK,88.5,90,Open,M,200,205,-207.5,,205,,,,,,205,1
B,Raw,Radosław Andreczko,2006-08-22,Poland,77.3,82.5,T16-17,M,110,115,-120,,115,,,,,,115,1
B,Raw,Ashot Antonyan,1986-12-22,Armenia,85,90,SM33-39,M,-60,-60,-60,,,,,,,,,DQ
B,Raw,Vahe Apitsaryan,2009-10-23,Armenia,91,100,T13-15,M,75,85,-92.5,,85,,,,,,85,1
B,Raw,Hubert Bąbrych,2001-01-10,Poland,105.1,110,J20-23,M,190,200,-205,,200,,,,,,200,1
B,Raw,Daniel Białas,1987-05-27,Poland,96,100,SM33-39,M,185,-195,195,,195,,,,,,195,2
B,Raw,Zbigniew Cabaj,1955-04-10,Poland,86.2,90,M6,M,115,125,130,,130,,,,,,130,1
B,Raw,Robert Cabała,,Poland,87,90,M3,M,160,165,-170,,165,,,,,,165,1
B,Raw,Marta Chachuła,1987-12-07,Poland,76.3,82.5,SM33-39,F,110,115,120,,120,,,,,,120,1
B,Raw,Pawel Chwalek,2000-10-13,Poland,89,90,J20-23,M,145,150,-155,,150,,,,,,150,1
B,Raw,Marcin Czaja,1976-04-06,Poland,140.5,140+,M2,M,170,180,-182.5,,180,,,,,,180,1
B,Raw,Jerzy Czajka,1965-11-01,Poland,89.2,90,M4,M,175,182.5,-187.5,,182.5,,,,,,182.5,1
B,Raw,Arkadiusz Druzgała,1990-02-20,Poland,104,110,SM33-39,M,180,-190,-190,,180,,,,,,180,2
B,Raw,Dawid Dziedzic,1999-12-12,Poland,81.5,82.5,J20-23,M,150,-155,160,,160,,,,,,160,1
B,Raw,Jakub Elgert,2000-08-21,Poland,126.5,140,J20-23,M,210,-217.5,-222.5,,210,,,,,,210,1
B,Raw,Dawid Elgert,1988-12-25,Poland,155,140+,Open,M,250,260,-265,,260,,,,,,260,1
B,Raw,Roman Eremaschvili,,Belarus,72.5,75,Open,M,210,220,225,,225,,,,,,225,1
B,Raw,Krystian Fijałkowski,1992-11-24,Poland,105,110,Open,M,180,195,-200,,195,,,,,,195,5
B,Raw,Daniel Filipowicz,2001-08-22,Poland,71.5,75,J20-23,M,130,135,-140,,135,,,,,,135,1
B,Raw,Paweł Fus,1977-10-05,Poland,108.2,110,M2,M,150,160,-172.5,,160,,,,,,160,1
B,Raw,Volodymyr Galyga,2005-08-16,Ukraine,68.5,75,T18-19,M,90,100,-105,,100,,,,,,100,1
B,Raw,Stanisław Gąsienica-Samek,1983-04-30,Poland,81.8,82.5,M1,M,175,180,-185,,180,,,,,,180,1
B,Raw,Levan Gorgodze,,Georgia,116.4,125,Open,M,200,210,215,,215,,,,,,215,2
B,Raw,Kacper Grabowski,2003-01-28,Poland,97.9,100,J20-23,M,140,145,150,,150,,,,,,150,2
B,Raw,Amadeusz Guroś,1992-11-04,Poland,137.2,140,Open,M,200,210,-220,,210,,,,,,210,4
B,Raw,Krzysztof Halczyk,1974-12-15,Poland,127,140,M2,M,165,170,-172.5,,170,,,,,,170,2
B,Raw,Hans Hellsten,1958-09-20,Sweden,97.3,100,M6,M,95,-102.5,-107.5,,95,,,,,,95,1
B,Raw,Kacper Janczy,2003-06-09,Poland,86.6,90,J20-23,M,120,130,135,,135,,,,,,135,2
B,Raw,Sławomir Jasica,1977-09-22,Poland,88.5,90,M2,M,170,-177.5,-177.5,,170,,,,,,170,1
B,Raw,Tahvo Jauhojavri,1961-12-08,Sweden,73.2,75,M5,M,130,-140,140,,140,,,,,,140,1
B,Raw,Alicja Jaworska,2007-12-19,Poland,62.6,67.5,T13-15,F,37.5,-42.5,45,,45,,,,,,45,1
B,Raw,Piotr Jezierski-Smyka,1983-10-12,Poland,85.2,90,M1,M,150,155,-157.5,,155,,,,,,155,1
B,Raw,Andrzej Juraszek,1977-11-30,Poland,95,100,M2,M,155,160,165,,165,,,,,,165,3
B,Raw,Piotr Jurkiewicz,1966-06-10,Poland,74.8,75,M4,M,110,115,-117.5,,115,,,,,,115,1
B,Raw,Sebastian Kalafarski,1996-02-09,Poland,105.8,110,Open,M,200,-205,-205,,200,,,,,,200,4
B,Raw,Antoni Kaliňski,1953-10-01,Poland,65.7,67.5,M7,M,95,100,-102.5,,100,,,,,,100,1
B,Raw,Grzegorz Kantor,1972-01-19,Poland,137,140,M3,M,160,170,-175,,170,,,,,,170,1
B,Raw,Daniel Karaszewski,1991-12-19,Poland,145,140+,Open,M,245,-260,-260,,245,,,,,,245,2
B,Raw,Marcin Karkula,1982-12-22,Poland,159,140+,Open,M,245,-252.5,-252.5,,245,,,,,,245,3
B,Raw,Artyom Khugoyan,1989-09-10,Armenia,108.5,110,SM33-39,M,190,-197.5,-202.5,,190,,,,,,190,1
B,Raw,Krzysztof Kłopocki,1959-04-10,Poland,105,110,M5,M,180,185,188,,188,,,,,,188,1
B,Raw,Dawid Kluczyńśki,1990-11-28,Poland,74.4,75,Open,M,155,-162.5,-165,,155,,,,,,155,3
B,Raw,Kamil Knap,2007-10-24,Poland,53.7,56,T16-17,M,70,75,-80,,75,,,,,,75,1
B,Raw,Marek Knap,1979-10-03,Poland,71.4,75,M1,M,105,110,115,,115,,,,,,115,1
B,Raw,Łukasz Kolasa,1988-09-02,Poland,97.6,100,SM33-39,M,170,-172.5,-177.5,,170,,,,,,170,6
B,Raw,Maria Kolasa,,Poland,64.1,67.5,SM33-39,F,45,-47.5,-50,,45,,,,,,45,1
B,Raw,Małgorzata Kopiec,1985-11-29,Poland,83.5,90,SM33-39,F,165,170,-175,,170,,,,,,170,1
B,Raw,Joanna Kosik,1982-07-01,Poland,70,75,M1,F,-122.5,-127.5,130,131,130,,,,,,130,1
B,Raw,Dorota Kosińska,1987-02-06,Poland,57.6,60,SM33-39,F,55,-57.5,60,,60,,,,,,60,2
B,Raw,Kacper Kosiński,2006-12-13,Poland,95.2,100,T16-17,M,120,125,-130,,125,,,,,,125,3
B,Raw,Kyrylo Kotsaga,2010-07-21,Ukraine,59.7,60,T13-15,M,65,70,-72.5,75,70,,,,,,70,2
B,Raw,Osman Kovalov,2007-09-12,Ukraine,80,82.5,T16-17,M,105,110,-115,,110,,,,,,110,2
B,Raw,Denys Kovalov,1978-08-01,Ukraine,99,100,M2,M,190,195,-200,,195,,,,,,195,2
B,Raw,Bartłomiej Kozdrój,2006-10-30,Poland,81,82.5,T16-17,M,-135,-135,-135,,,,,,,,,DQ
B,Raw,Krzysztof Kozielski,1962-07-18,Poland,88.8,90,M5,M,120,125,-130,,125,,,,,,125,2
B,Raw,Michal Kráľ,1982-03-18,Slovenia,111.7,125,M1,M,155,165,170,,170,,,,,,170,2
B,Raw,Michał Krętosz,1993-01-23,Poland,86,90,Open,M,190,-197.5,-202.5,,190,,,,,,190,2
B,Raw,Paweł Kubacki,1979-07-03,Poland,80.3,82.5,M1,M,170,-175,-175,,170,,,,,,170,3
B,Raw,Piotr Kulczak,1997-08-12,Poland,98.4,100,Open,M,190,200,210,,210,,,,,,210,2
B,Raw,Kamil Kuś,1990-04-02,Poland,85.4,90,SM33-39,M,165,170,-175,,170,,,,,,170,1
B,Raw,Adam Łaskawski,,Poland,127.9,140,Open,M,-252.5,-262.5,-265,,,,,,,,,DQ
B,Raw,Johan Liljeblad,1989-10-31,Sweden,144,140+,Open,M,200,-212.5,,,200,,,,,,200,5
B,Raw,Paweł Liszcz,1978-01-24,Poland,112.5,125,Open,M,250,255,260,,260,,,,,,260,1
B,Raw,Konrad Lucimiński,1989-08-14,Poland,94.7,100,SM33-39,M,170,175,-180,,175,,,,,,175,4
B,Raw,Arkadiusz Macudziński,1980-08-19,Poland,98.1,100,M1,M,-172.5,-172.5,-177.5,,,,,,,,,DQ
B,Raw,Brigitte Maczka,1961-10-05,Germany,65,67.5,M5,F,-32.5,-37.5,-40,,,,,,,,,DQ
B,Raw,Mieczysłąw Maczka,1954-09-11,Germany,81.5,82.5,M6,M,-102.5,110,115,,115,,,,,,115,1
B,Raw,Rafał Makowski,1978-09-11,Poland,97.3,100,M2,M,205,215,220,,220,,,,,,220,1
B,Raw,Mariusz Małkowski,1987-01-23,Poland,104,110,SM33-39,M,160,-170,-170,,160,,,,,,160,3
B,Raw,Sedrak Matsakyan,1995-09-23,Armenia,100,100,Open,M,165,180,-182.5,,180,,,,,,180,3
B,Raw,Damian Miczołek,,Poland,74,75,J20-23,M,-150,-150,-150,,,,,,,,,DQ
B,Raw,Patrycja Mikołajczyk,1972-04-14,Poland,77.3,82.5,M3,F,90,95,-102.5,,95,,,,,,95,1
B,Raw,Adam Moskal,1996-01-31,Hungary,108.7,110,Open,M,255,265,-270,,265,,,,,,265,1
B,Raw,Milan Mrázek,1979-02-13,Czechia,150,140+,M1,M,230,240,245,,245,,,,,,245,1
B,Raw,Patryk Nabuda,1998-10-10,Poland,74.3,75,Open,M,150,-157.5,-162.5,,150,,,,,,150,5
B,Raw,Sebastian Niedziela,1979-04-02,Poland,82.5,82.5,M1,M,170,175,-177.5,,175,,,,,,175,2
B,Raw,Paweł Niesatki,1989-01-01,Poland,95,100,SM33-39,M,185,190,-192.5,,190,,,,,,190,3
B,Raw,Ákos Oláh,1989-03-04,Hungary,97,100,Open,M,220,225,-227.5,,225,,,,,,225,1
B,Raw,Denys Onufriienko,1987-10-17,Ukraine,108.95,110,Open,M,245,255,-260,,255,,,,,,255,2
B,Raw,Klaudiusz Orzechowski,2006-06-27,Poland,90.7,100,T16-17,M,130,135,140,,140,,,,,,140,2
B,Raw,Wiesław Ostrowski,1948-03-21,Poland,86,90,M7,M,-127.5,-132.5,137.5,,137.5,,,,,,137.5,1
B,Raw,Magdalena Pawelak,1991-10-28,Poland,70,75,Open,F,100,-102.5,-102.5,,100,,,,,,100,1
B,Raw,Mateusz Pawelak,1990-10-14,Poland,82.5,82.5,SM33-39,M,190,200,-205,,200,,,,,,200,1
B,Raw,Patryk Pietrasiak,1989-11-29,Poland,95.8,100,SM33-39,M,-162.5,170,-175,,170,,,,,,170,5
B,Raw,Patryk Pikul,2002-07-21,Poland,116.2,125,J20-23,M,170,180,185,,185,,,,,,185,1
B,Raw,Amadeusz Plata,,Poland,89.3,90,Open,M,170,180,-190,,180,,,,,,180,3
B,Raw,Maciej Poniatowski,2007-06-24,Poland,87,90,T16-17,M,-142.5,-147.5,-152.5,157.5,,,,,,,,DQ
B,Raw,Tomasz Prętkiewicz,1973-04-09,Poland,125,125,M3,M,165,170,175,,175,,,,,,175,1
B,Raw,Hubert Przybyłek,1993-08-11,Poland,105.7,110,Open,M,190,195,-200,,195,,,,,,195,6
B,Raw,Dominika Rajba,1999-03-30,Poland,67,67.5,Open,F,55,60,65,,65,,,,,,65,1
B,Raw,Bettina Razzouki-Korkis,1965-08-28,Poland,56.3,60,M4,F,75,80,-82.5,,80,,,,,,80,1
B,Raw,Damian Redzynia,1993-01-14,Poland,74,75,Open,M,150,160,-165,,160,,,,,,160,2
B,Raw,Arkadiusz Redzynia,1993-01-14,Poland,109.2,110,Open,M,235,245,-250,,245,,,,,,245,3
B,Raw,Marek Sadowski,1979-06-17,Poland,115.5,125,M1,M,205,215,-217.5,,215,,,,,,215,1
B,Raw,Robert Sielicki,1964-10-29,UK,81.1,82.5,M4,M,95,100,-102.5,,100,,,,,,100,1
B,Raw,Łukasz Ślósarek,1987-07-14,Poland,99,100,SM33-39,M,210,215,-220,,215,,,,,,215,1
B,Raw,Stefan Sochaňski,1948-11-17,Poland,81.1,82.5,M7,M,65,-72.5,-72.5,,65,,,,,,65,1
B,Raw,Marcin Sokołowski,1990-01-06,Poland,72,75,SM33-39,M,130,135,-140,,135,,,,,,135,1
B,Raw,Pawel Stachurski,1979-01-10,Poland,108.3,110,M1,M,190,-200,200,,200,,,,,,200,1
B,Raw,Piotr Strzała,1966-11-03,Poland,101.3,110,M4,M,170,-180,180,,180,,,,,,180,1
B,Raw,Marek Strzałkowski,1959-10-30,Poland,91.7,100,M5,M,-142.5,-147.5,150,-152.5,150,,,,,,150,1
B,Raw,Henryk Świerzy,1956-03-08,Poland,110.1,125,M6,M,150,156,157.5,160,157.5,,,,,,157.5,1
B,Raw,Kamil Sztuk,2002-10-22,Poland,81.1,82.5,J20-23,M,145,150,-155,,150,,,,,,150,2
B,Raw,Łukasz Szulborski,2000-07-04,Poland,94.6,100,J20-23,M,150,155,160,,160,,,,,,160,1
B,Raw,Kazimierz Tamiłowski,1948-02-02,Poland,86.3,90,M7,M,-127.5,-132.5,-137.5,,,,,,,,,DQ
B,Raw,Krystian Tuzikowski,2001-06-19,Poland,59.9,60,J20-23,M,110,115,-120,,115,,,,,,115,1
B,Raw,Adam Ubertowski,1967-02-19,Poland,123.5,125,M4,M,150,160,-170,180,160,,,,,,160,1
B,Raw,Bogusław Ufir,1993-02-28,Poland,69.7,75,Open,M,140,150,-155,,150,,,,,,150,4
B,Raw,Mirosław Urbaniak,1961-04-06,Poland,88,90,M5,M,150,-157.5,-160,,150,,,,,,150,1
B,Raw,Liudmyla Vasylyshyn,1974-08-13,Ukraine,58.7,60,M2,F,-77.5,-80,-80,,,,,,,,,DQ
B,Raw,Pavel Vechter,1976-08-16,Slovakia,74,75,M2,M,-127.5,-132.5,135,,135,,,,,,135,1
B,Raw,Ryszard Wilczak,1955-10-26,Poland,101.2,110,M6,M,130,135,140,,140,,,,,,140,1
B,Raw,Patryk Wójcik,,Poland,67.5,67.5,J20-23,M,120,-130,130,-132.5,130,,,,,,130,2
B,Raw,Sylwester Wołosz,2005-12-27,Poland,93,100,T16-17,M,140,150,-153,,150,,,,,,150,1
B,Raw,Hovhannes Yazichyan,1971-05-08,Poland,96,100,M3,M,180,190,200,,200,,,,,,200,1
B,Raw,Hubert Zaręba,1999-12-21,Poland,67,67.5,J20-23,M,125,135,-142.5,,135,,,,,,135,1
B,Raw,Temur Absaridze,,Georgia,84,90,SM33-39,M,130,145,-150,,145,,,,,,145,2
B,Raw,Artak Avetisyan,2005-10-17,Armenia,90,90,T18-19,M,60,70,75,80,75,,,,,,75,1
B,Raw,Bartosz Damek,2008-03-19,Poland,73.3,75,T13-15,M,95,97.5,-100,,97.5,,,,,,97.5,1
B,Raw,Jakub Dyrszka,2006-09-18,Poland,72.2,75,T16-17,M,100,105,-110,,105,,,,,,105,1
B,Raw,Alik Khachatryan,2008-02-02,Armenia,59.8,60,T13-15,M,60,70,80,,80,,,,,,80,1
B,Raw,Ilia Kochlashvili,,Georgia,120.3,125,Open,M,170,180,,,180,,,,,,180,3
B,Raw,David Lindstorm,1981-05-29,Sweden,103.1,110,M1,M,100,-110,115,,115,,,,,,115,2
B,Raw,Szymon Miśkowiec,2002-05-06,Poland,73,75,J20-23,M,-117.5,-122.5,125,,125,,,,,,125,2
B,Raw,Adrian Młynarczyk,1992-11-30,Poland,105.4,110,Open,M,145,155,165,,165,,,,,,165,7
B,Raw,Lilien Pacova,2006-07-11,Slovenia,62,67.5,T16-17,F,-47.5,-52.5,-57.5,,,,,,,,,DQ
B,Raw,Andrzej Ratajczyk,1953-01-07,Poland,97.95,100,M7,M,130,135,-137.5,,135,,,,,,135,1
B,Raw,Ryszard Śliwiński,1950-01-22,Poland,73.7,75,M7,M,55,60,,,60,,,,,,60,1
B,Raw,Justyna Stasiowska,1988-04-14,Poland,59.6,60,SM33-39,F,70,75,-80,,75,,,,,,75,1
B,Raw,Viktor Teliatnyk,1988-04-30,Ukraine,101.6,110,SM33-39,M,125,135,140,,140,,,,,,140,4
B,Raw,Irakli Tskhovrebashvili,1981-05-10,Georgia,92,100,M1,M,-120,-120,120,,120,,,,,,120,1
B,Raw,Artur Vardanyan,2006-01-08,Armenia,72.5,75,T16-17,M,80,90,-95,,90,,,,,,90,2
B,Raw,Marcus Westerback,1984-07-03,Sweden,106.8,110,SM33-39,M,-162.5,-170,-170,,,,,,,,,DQ
B,Unlimited,Seweryn Bania,1983-10-02,Poland,106.8,110,M1,M,280,290,301,,301,,,,,,301,1
B,Unlimited,Sebastian Dąbrowski,1980-07-02,Poland,94,100,Open,M,345,360,-372.5,,360,,,,,,360,1
B,Unlimited,Dawid Elgert,1988-12-25,Poland,155,140+,Open,M,370,-400,400,,400,,,,,,400,1
B,Unlimited,Krystian Fijałkowski,1992-11-24,Poland,105,110,Open,M,310,-342.5,-342.5,,310,,,,,,310,3
B,Unlimited,Bartłomiej Gaweł,1980-09-26,Poland,73.2,75,M1,M,-225.5,255,-262.5,,255,,,,,,255,1
B,Unlimited,Jozef Harandza,1982-05-20,Slovenia,113.5,125,M1,M,320,340,-365,,340,,,,,,340,1
B,Unlimited,Lukasz Kaim,1988-02-14,Poland,102,110,Open,M,320,-340,-360,,320,,,,,,320,2
B,Unlimited,Ilia Kochlashvili,,Georgia,120.3,125,Open,M,230,250,270,,270,,,,,,270,1
B,Unlimited,Marcin Kopiec,1991-07-16,Poland,108.6,110,Open,M,-250,255,-275,,255,,,,,,255,5
B,Unlimited,Sebastian Niedziela,1979-04-02,Poland,82.5,82.5,M1,M,230,-250,250,,250,,,,,,250,1
B,Unlimited,Hubert Przybyłek,1993-08-11,Poland,105.7,110,Open,M,230,240,-255,,240,,,,,,240,6
B,Unlimited,Artur Redestowicz,1974-12-18,Poland,107.8,110,Open,M,320,340,-355,,340,,,,,,340,1
B,Unlimited,Bogusław Ufir,1993-02-28,Poland,69.7,75,Open,M,225,250,255,256,255,,,,,,255,1
B,Unlimited,Robert Wiejas,1977-05-26,Poland,136.2,140,Open,M,325,-355,-355,,325,,,,,,325,2
B,Unlimited,Tomasz Wyrwisz,1987-05-03,Poland,101,110,Open,M,300,-315,-315,,300,,,,,,300,4
D,Raw,Seyran Abrahamyan,1996-10-10,Armenia,56,56,Open,M,,,,,,165,180,-185,,180,180,1
D,Raw,Artak Avetisyan,2005-10-17,Armenia,90,90,T18-19,M,,,,,,150,170,180,,180,180,2
D,Raw,Květuše Baranovičová,1953-03-12,Slovakia,62,67.5,M7,F,,,,,,70,80,90,100,90,90,1
D,Raw,Jozef Bartek,1945-03-06,Slovakia,79.5,82.5,M7,M,,,,,,70,80,90,,90,90,3
D,Raw,Józef Bejgrowicz,1952-09-24,Poland,83,90,M7,M,,,,,,200,210,220,,220,220,1
D,Raw,Sebastian Bojdo,1999-09-13,Poland,81,82.5,Open,M,,,,,,255,265,-275,,265,265,1
D,Raw,Arkadiusz Borek,2001-04-04,Poland,81,82.5,J20-23,M,,,,,,250,260,-270,,260,260,2
D,Raw,Zbigniew Cabaj,1955-04-10,Poland,86.2,90,M6,M,,,,,,180,205,-210,,205,205,1
D,Raw,Ireneusz Czupryn,1955-10-01,Poland,84.5,90,M6,M,,,,,,175,185,190,,190,190,2
D,Raw,Bartosz Damek,2008-03-19,Poland,73.3,75,T13-15,M,,,,,,190,200,210,212.5,210,210,1
D,Raw,Paweł Drzyzga,2001-06-04,Poland,82.4,82.5,J20-23,M,,,,,,260,275,290.5,,290.5,290.5,1
D,Raw,Mateusz Dziura,1980-07-03,Poland,101,110,M1,M,,,,,,255,275,285,301,285,285,1
D,Raw,Niclas Friberg,1974-01-10,Sweden,88.6,90,M2,M,,,,,,225,-232.5,-232.5,,225,225,1
D,Raw,Paweł Fus,1977-10-05,Poland,108.2,110,M2,M,,,,,,160,180,200,,200,200,1
D,Raw,Artyom Galstyan,2009-06-09,Armenia,44.5,48,T13-15,M,,,,,,100,110,-120,,110,110,1
D,Raw,Davit Grigoryan,1967-04-25,Armenia,82,82.5,M4,M,,,,,,120,140,150,,150,150,1
D,Raw,Kacper Gumularz,2004-08-05,Poland,87.2,90,T18-19,M,,,,,,240,250,-265,,250,250,1
D,Raw,Amadeusz Guroś,1992-11-04,Poland,137.2,140,Open,M,,,,,,-300,310,-320,,310,310,2
D,Raw,Hans Hellsten,1958-09-20,Sweden,97.3,100,M6,M,,,,,,220,235,240,,240,240,1
D,Raw,Karen Hovhannisyan,1978-01-01,Armenia,87.2,90,M2,M,,,,,,180,200,205,,205,205,2
D,Raw,Antoni Kaliňski,1953-10-01,Poland,65.7,67.5,M7,M,,,,,,115,-122.5,130,,130,130,1
D,Raw,Kiryl Kananchuck,2005-06-20,Poland,92.6,100,T18-19,M,,,,,,160,-180,-195,,160,160,1
D,Raw,Kamil Kargul,1985-10-26,Poland,107.9,110,SM33-39,M,,,,,,310,320,330,,330,330,1
D,Raw,Alik Khachatryan,2008-02-02,Armenia,59.8,60,T13-15,M,,,,,,125,135,140,,140,140,1
D,Raw,Artyom Khugoyan,1989-09-10,Armenia,108.5,110,SM33-39,M,,,,,,-302.5,302.5,-315,,302.5,302.5,2
D,Raw,Wiesław Kiwacki,1976-11-11,Poland,71.7,75,M2,M,,,,,,180,200,220,,220,220,1
D,Raw,Przemysław Klimko,1984-02-16,Poland,76.6,82.5,SM33-39,M,,,,,,190,200,-202.5,,200,200,1
D,Raw,Łukasz Kolasa,1988-09-02,Poland,97.6,100,SM33-39,M,,,,,,240,250,-255,,250,250,2
D,Raw,Konrad Kosiński,1985-02-26,Poland,86.2,90,SM33-39,M,,,,,,210,220,-240,,220,220,2
D,Raw,Michal Kráľ,1982-03-18,Slovenia,111.7,125,M1,M,,,,,,-210,-210,210,,210,210,1
D,Raw,Adam Krzyszycha,2007-09-16,Poland,74.5,75,T16-17,M,,,,,,230,-242.5,-242.5,,230,230,1
D,Raw,Zuzanna Kulczak,1999-05-09,Poland,65.1,67.5,Open,F,,,,,,150,160,-165,,160,160,1
D,Raw,Bartłomiej Leń,2002-06-03,Poland,80,82.5,J20-23,M,,,,,,210,220,230,,230,230,3
D,Raw,Johan Liljeblad,1989-10-31,Sweden,144,140+,Open,M,,,,,,300,325,-327.5,,325,325,1
D,Raw,Paweł Ludwin,2006-07-19,Poland,79.9,82.5,T16-17,M,,,,,,170,185,-200,,185,185,1
D,Raw,Jan Łuka,1949-06-07,Poland,81.3,82.5,M7,M,,,,,,200,220,,,220,220,1
D,Raw,Mariusz Łydziński,1990-01-25,Poland,73.5,75,SM33-39,M,,,,,,220,230,-242.5,,230,230,1
D,Raw,Brigitte Maczka,1961-10-05,Germany,65,67.5,M5,F,,,,,,-92.5,-102.5,105,,105,105,1
D,Raw,Mieczysłąw Maczka,1954-09-11,Germany,81.5,82.5,M6,M,,,,,,140,155,165,,165,165,1
D,Raw,Dawid Malec,2001-09-02,Poland,81,82.5,J20-23,M,,,,,,220,230,-240,,230,230,4
D,Raw,Sedrak Matsakyan,1995-09-23,Armenia,100,100,Open,M,,,,,,180,-220,225,,225,225,2
D,Raw,Tomasz Miloch,1983-09-17,Poland,78.4,82.5,M1,M,,,,,,210,220,-230,,220,220,1
D,Raw,Alla Mirzoyan,1996-04-02,Armenia,72,75,Open,F,,,,,,150,-157.5,-165,,150,150,1
D,Raw,Szymon Miśkowiec,2002-05-06,Poland,73,75,J20-23,M,,,,,,230,240,-247.5,250,240,240,1
D,Raw,Lilien Pacova,2006-07-11,Slovenia,62,67.5,T16-17,F,,,,,,120,130,135,,135,135,1
D,Raw,Milan Páleník,1970-12-11,Slovakia,94,100,M3,M,,,,,,160,180,190,,190,190,1
D,Raw,Patryk Pietrasiak,1989-11-29,Poland,95.8,100,SM33-39,M,,,,,,270,280,290,,290,290,1
D,Raw,Maciej Pyznar,2006-09-13,Poland,85.4,90,T16-17,M,,,,,,200,210,-220,220,210,210,1
D,Raw,Bettina Razzouki-Korkis,1965-08-28,Poland,56.3,60,M4,F,,,,,,125,145,151,,151,151,1
D,Raw,Karol Kornel Repiský,1964-06-26,Slovenia,125.8,140,M4,M,,,,,,210,220,230,,230,230,1
D,Raw,Jakub Sikora,2002-10-15,Poland,65.2,67.5,J20-23,M,,,,,,170,180,-200,,180,180,2
D,Raw,Ryszard Śliwiński,1950-01-22,Poland,73.7,75,M7,M,,,,,,120,130,135,,135,135,1
D,Raw,Natalia Soboń,1995-08-19,Poland,51.2,52,Open,F,,,,,,145,150,-155,,150,150,1
D,Raw,Stefan Sochaňski,1948-11-17,Poland,81.1,82.5,M7,M,,,,,,140,152.5,170,,170,170,2
D,Raw,Marcin Sokołowski,1990-01-06,Poland,72,75,SM33-39,M,,,,,,205,215,220,,220,220,2
D,Raw,Pawel Stachurski,1979-01-10,Poland,108.3,110,M1,M,,,,,,260,270,-272.5,,270,270,2
D,Raw,Artur Vardanyan,2006-01-08,Armenia,72.5,75,T16-17,M,,,,,,170,185,195,,195,195,2
D,Raw,Hubert Wójcikiewicz,2007-12-22,Poland,82,82.5,T13-15,M,,,,,,200,205,215,,215,215,1
D,Raw,Weronika Zaprzałka,2006-06-08,Poland,51.3,52,T16-17,F,,,,,,90,105,-115.5,117.5,105,105,1
D,Raw,Temur Absaridze,,Georgia,84,90,SM33-39,M,,,,,,190,210,230,,230,230,1
D,Raw,Hayk Afyan,1978-03-20,Armenia,100,100,M2,M,,,,,,180,200,-210,,200,200,1
D,Raw,Jakub Dyrszka,2006-09-18,Poland,72.2,75,T16-17,M,,,,,,170,-182.5,-192.5,,170,170,3
D,Raw,Levan Gorgodze,,Georgia,116.4,125,SM33-39,M,,,,,,260,,,,260,260,1
D,Raw,Ilia Kochlashvili,,Georgia,120.3,125,Open,M,,,,,,260,280,,,280,280,1
D,Raw,Piotr Kulczak,1997-08-12,Poland,98.4,100,Open,M,,,,,,250,260,-272.5,,260,260,1
D,Raw,David Lindstorm,1981-05-29,Sweden,103.1,110,M1,M,,,,,,200,220,230,,230,230,3
D,Raw,Adrian Młynarczyk,1992-11-30,Poland,105.4,110,Open,M,,,,,,-250,270,290,,290,290,1
D,Raw,Andrzej Ratajczyk,1953-01-07,Poland,97.95,100,M7,M,,,,,,185,-192.5,-192.5,,185,185,1
D,Raw,Justyna Stasiowska,1988-04-14,Poland,59.6,60,SM33-39,F,,,,,,155,165,170,175,170,170,1
D,Raw,Viktor Teliatnyk,1988-04-30,Ukraine,101.6,110,SM33-39,M,,,,,,200,215,220,,220,220,4
D,Raw,Irakli Tskhovrebashvili,1981-05-10,Georgia,92,100,M1,M,,,,,,-120,-120,120,,120,120,1
D,Raw,Marcus Westerback,1984-07-03,Sweden,106.8,110,SM33-39,M,,,,,,220,240,-250,,240,240,3
D,Raw,Hubert Zaręba,1999-12-21,Poland,67,67.5,J20-23,M,,,,,,210,230,-250,,230,230,1
